digraph "D:/krave/Descargas/cudagsgp-master/cudagsgp-master/GsgpCuda.h"
{
 // LATEX_PDF_SIZE
  edge [fontname="Helvetica",fontsize="10",labelfontname="Helvetica",labelfontsize="10"];
  node [fontname="Helvetica",fontsize="10",shape=record];
  Node1 [label="D:/krave/Descargas\l/cudagsgp-master/cudagsgp\l-master/GsgpCuda.h",height=0.2,width=0.4,color="black", fillcolor="grey75", style="filled", fontcolor="black",tooltip="File containing the definition of the modules (kernels) used to create the population of individuals,..."];
  Node1 -> Node2 [dir="back",color="midnightblue",fontsize="10",style="solid"];
  Node2 [label="D:/krave/Descargas\l/cudagsgp-master/cudagsgp\l-master/GsgpCuda.cpp",height=0.2,width=0.4,color="black", fillcolor="white", style="filled",URL="$d3/d9b/_gsgp_cuda_8cpp.html",tooltip="file containing the definition of the modules (kernels) used to create the population of individuals,..."];
  Node2 -> Node3 [dir="back",color="midnightblue",fontsize="10",style="solid"];
  Node3 [label="D:/krave/Descargas\l/cudagsgp-master/cudagsgp\l-master/GsgpCuda.cu",height=0.2,width=0.4,color="black", fillcolor="white", style="filled",URL="$d9/d1e/_gsgp_cuda_8cu.html",tooltip="file containing the main with the geometric semantic genetic programming algorithm"];
}
